Umar,Jorgson,2004.05.21
Jimmy,Smiles,2001.04.14
Piotr,Smitzer,1995.07.07
Brad,Baker,1993.05.25
Alizee,Baron,1991.05.17
Lacey,Baker,1998.10.13
Mary,Amid,2002.11.30
Michael,Gonsil,1989.05.12
Johnny,Cake,1988.09.03